{
    "url": {
        "data": "http:\/\/cdcb.judicial.gov.tw\/abbs\/wkw\/WHD6K03.jsp?ab=AAAdkxAAHAAAORCAAE&bc=099&cd=%AA%6B%B5%6E%A5%4C++++++++++++++&de=000003&ef=TTD&fg=1",
        "staff": "http:\/\/cdcb.judicial.gov.tw\/abbs\/wkw\/WHD6K04.jsp?ab=AAAdkxAAHAAAORCAAE&bc=099&cd=%AA%6B%B5%6E%A5%4C++++++++++++++&de=000003&ef=TTD&fg=1",
        "office": "http:\/\/cdcb.judicial.gov.tw\/abbs\/wkw\/WHD6K07.jsp?ab=AAAdkxAAHAAAORCAAE&bc=099&cd=%AA%6B%B5%6E%A5%4C++++++++++++++&de=000003&ef=TTD&fg=1"
    },
    "登記案號": "099年法登他字3號",
    "類別": "社團",
    "案由": "變更登記",
    "主任": "賴正發",
    "登記號數": "171",
    "收件日期": "099\/01\/22",
    "登記日期": "099\/01\/22",
    "公告日期": "099\/01\/22",
    "登記簿": "6冊7頁",
    "任期判定": "2",
    "屆期判定": "3",
    "法人代表": "張志龍",
    "法人名稱": "社團法人台東縣中小企業協會",
    "設立登記日期": "097\/09\/24",
    "主事務所": "台東縣台東市長安街4號",
    "目的": "本會以針對中小企業在經濟社會中所具有之深厚潛力，研究策劃，調整合作，促進中小企業之健全發展為宗旨。",
    "捐助方法": "1.會員入會費。2.會員常年會費。3.顧問會員。4.活動收入。5.補助款。6.基金之利息。7.其他收入。",
    "許可機關日期": "臺東縣政府民國94年10月31日府社行字第0940086921號函",
    "存立時期": "民國94年9月30日",
    "財產總額": "98028",
    "結案原因": "准許",
    "結案日期": "099\/01\/22",
    "歸檔日期": "099\/05\/30",
    "發證日期": "099\/01\/22",
    "送達代收人姓名": "",
    "送達代收人住址": "",
    "郵遞區號": "",
    "清算人": "",
    "註銷日期": "",
    "撤銷日期": "",
    "撤(註)銷機關文號": "",
    "撤(註)銷原因": "",
    "董監事": [
        [
            "理事長",
            "張志龍"
        ],
        [
            "常務理事",
            "鄧達義"
        ],
        [
            "理事",
            "陳翠娥"
        ],
        [
            "理事",
            "涂林園"
        ],
        [
            "理事",
            "林明君"
        ],
        [
            "理事",
            "伍鳳瑛"
        ],
        [
            "理事",
            "廖月瑛"
        ],
        [
            "理事",
            "謝佳龍"
        ],
        [
            "理事",
            "徐仲德"
        ],
        [
            "理事",
            "陳源松"
        ],
        [
            "理事",
            "蕭全軒"
        ],
        [
            "理事",
            "陳兆森"
        ],
        [
            "理事",
            "劉錫鋒"
        ],
        [
            "常務監事",
            "張益松"
        ],
        [
            "監事",
            "方培旭"
        ],
        [
            "理事",
            "陳志成"
        ],
        [
            "監事",
            "黃炳欽"
        ],
        [
            "監事",
            "楊漢"
        ],
        [
            "常務理事",
            "楊珍琪"
        ],
        [
            "監事",
            "劉木煌"
        ]
    ],
    "分事務所": [

    ],
    "latitude": "",
    "longitude": ""
}