{
    "url": {
        "data": "http:\/\/cdcb.judicial.gov.tw\/abbs\/wkw\/WHD6K03.jsp?ab=AAAdkxAAHAAANtQAAC&bc=081&cd=%AA%6B%B5%6E++++++++++++++++&de=000002&ef=TTD&fg=1",
        "staff": "http:\/\/cdcb.judicial.gov.tw\/abbs\/wkw\/WHD6K04.jsp?ab=AAAdkxAAHAAANtQAAC&bc=081&cd=%AA%6B%B5%6E++++++++++++++++&de=000002&ef=TTD&fg=1",
        "office": "http:\/\/cdcb.judicial.gov.tw\/abbs\/wkw\/WHD6K07.jsp?ab=AAAdkxAAHAAANtQAAC&bc=081&cd=%AA%6B%B5%6E++++++++++++++++&de=000002&ef=TTD&fg=1"
    },
    "登記案號": "081年法登字2號",
    "類別": "財團",
    "案由": "變更登記",
    "主任": "賴淳良",
    "登記號數": "35",
    "收件日期": "081\/04\/25",
    "登記日期": "081\/05\/06",
    "公告日期": "081\/05\/11",
    "登記簿": "2冊35頁",
    "任期判定": "",
    "屆期判定": "0",
    "法人代表": "謝膺毅",
    "法人名稱": "財團法人基督教蘭恩文教基金會",
    "設立登記日期": "080\/04\/18",
    "主事務所": "台東縣蘭嶼鄉紅頭村仁愛街一八八號",
    "目的": "推廣蘭嶼學前教育,衛生保健教育,發揚雅美文化,輔導蘭嶼兒童,青少年身心健全的發展。",
    "捐助方法": "由謝膺毅等人捐贈現金新台幣貳佰萬元",
    "許可機關日期": "台東縣政府教育局民國八十年三月二十日",
    "存立時期": "無限期",
    "財產總額": "2000000",
    "結案原因": "准許",
    "結案日期": "081\/05\/06",
    "歸檔日期": "",
    "發證日期": "",
    "送達代收人姓名": "",
    "送達代收人住址": "",
    "郵遞區號": "",
    "清算人": "",
    "註銷日期": "",
    "撤銷日期": "",
    "撤(註)銷機關文號": "",
    "撤(註)銷原因": "",
    "董監事": [
        [
            "董事長",
            "謝膺毅"
        ],
        [
            "董事",
            "林蔡娩"
        ],
        [
            "董事",
            "楊濟華"
        ],
        [
            "董事",
            "黃清泰"
        ],
        [
            "董事",
            "宋及正"
        ],
        [
            "董事",
            "鄭家常"
        ],
        [
            "董事",
            "林治平"
        ],
        [
            "董事",
            "周康寧"
        ],
        [
            "董事",
            "楊光榮"
        ],
        [
            "董事",
            "林茂安"
        ],
        [
            "董事",
            "蘇振泰"
        ]
    ],
    "分事務所": [

    ],
    "latitude": "",
    "longitude": ""
}