{
    "url": {
        "data": "http:\/\/cdcb.judicial.gov.tw\/abbs\/wkw\/WHD6K03.jsp?ab=AAAdkxAAHAAAMy3AAE&bc=090&cd=%AA%6B%B5%6E%A5%4C++++++++++++++&de=000129&ef=TND&fg=1",
        "staff": "http:\/\/cdcb.judicial.gov.tw\/abbs\/wkw\/WHD6K04.jsp?ab=AAAdkxAAHAAAMy3AAE&bc=090&cd=%AA%6B%B5%6E%A5%4C++++++++++++++&de=000129&ef=TND&fg=1",
        "office": "http:\/\/cdcb.judicial.gov.tw\/abbs\/wkw\/WHD6K07.jsp?ab=AAAdkxAAHAAAMy3AAE&bc=090&cd=%AA%6B%B5%6E%A5%4C++++++++++++++&de=000129&ef=TND&fg=1"
    },
    "登記案號": "090年法登他字129號",
    "類別": "財團",
    "案由": "變更登記",
    "主任": "梁元生",
    "登記號數": "82",
    "收件日期": "090\/11\/28",
    "登記日期": "090\/11\/29",
    "公告日期": "090\/11\/29",
    "登記簿": "5冊8頁",
    "任期判定": "2",
    "屆期判定": "11",
    "法人代表": "鄭再發",
    "法人名稱": "財團法人台南市私立寶仁國民小學",
    "設立登記日期": "062\/05\/24",
    "主事務所": "台南市開南街二一一巷六號",
    "目的": "謀教育之發展。",
    "捐助方法": "天主教中華耶穌寶血女修會資助",
    "許可機關日期": "五十六年八月五日台灣省政府教育廳，教四字第０六二四０號",
    "存立時期": "無限期",
    "財產總額": "54552668",
    "結案原因": "准許",
    "結案日期": "090\/11\/29",
    "歸檔日期": "091\/01\/16",
    "發證日期": "",
    "送達代收人姓名": "",
    "送達代收人住址": "",
    "郵遞區號": "",
    "清算人": "",
    "註銷日期": "",
    "撤銷日期": "",
    "撤(註)銷機關文號": "",
    "撤(註)銷原因": "",
    "董監事": [
        [
            "董事長",
            "鄭再發"
        ],
        [
            "董事",
            "麥桂珍"
        ],
        [
            "董事",
            "陳太農"
        ],
        [
            "董事",
            "張潔德"
        ],
        [
            "董事",
            "陳煥鑾"
        ],
        [
            "董事",
            "宮高德"
        ],
        [
            "董事",
            "李伯煒"
        ],
        [
            "董事",
            "劉麗萍"
        ],
        [
            "董事",
            "蔡國華"
        ]
    ],
    "分事務所": [

    ],
    "latitude": "",
    "longitude": ""
}