{
    "url": {
        "data": "http:\/\/cdcb.judicial.gov.tw\/abbs\/wkw\/WHD6K03.jsp?ab=AAAdkxAAHAAAGg2AAC&bc=076&cd=%B5%6E++++++++++++++++++&de=000039&ef=TPD&fg=1",
        "staff": "http:\/\/cdcb.judicial.gov.tw\/abbs\/wkw\/WHD6K04.jsp?ab=AAAdkxAAHAAAGg2AAC&bc=076&cd=%B5%6E++++++++++++++++++&de=000039&ef=TPD&fg=1",
        "office": "http:\/\/cdcb.judicial.gov.tw\/abbs\/wkw\/WHD6K07.jsp?ab=AAAdkxAAHAAAGg2AAC&bc=076&cd=%B5%6E++++++++++++++++++&de=000039&ef=TPD&fg=1"
    },
    "登記案號": "076年登字39號",
    "類別": "財團",
    "案由": "變更登記",
    "主任": "李慧兒",
    "登記號數": "1023",
    "收件日期": "076\/02\/20",
    "登記日期": "076\/02\/20",
    "公告日期": "076\/02\/20",
    "登記簿": "45冊23頁",
    "任期判定": "2",
    "屆期判定": "2",
    "法人代表": "各董事",
    "法人名稱": "財團法人應昌期圍棋教育基金會",
    "設立登記日期": "072\/09\/22",
    "主事務所": "台北市大安區忠孝東路4段320號12樓",
    "目的": "為復興中華文化發揚圍棋國粹。",
    "捐助方法": "由應昌期等共同捐助",
    "許可機關日期": "教育部七十二年八月十九日　台︵七二︶社字第三二七一四號函",
    "存立時期": "永久",
    "財產總額": "100000000",
    "結案原因": "准許",
    "結案日期": "076\/02\/20",
    "歸檔日期": "076\/03\/12",
    "發證日期": "076\/03\/02",
    "送達代收人姓名": "",
    "送達代收人住址": "",
    "郵遞區號": "",
    "清算人": "",
    "註銷日期": "",
    "撤銷日期": "",
    "撤(註)銷機關文號": "",
    "撤(註)銷原因": "",
    "董監事": [
        [
            "董事長",
            "沈君山"
        ],
        [
            "董事",
            "蕭理昌"
        ],
        [
            "董事",
            "姚祥義"
        ],
        [
            "董事",
            "何智琪"
        ],
        [
            "董事",
            "許欽璋"
        ],
        [
            "董事",
            "桂良"
        ],
        [
            "董事",
            "張子湘"
        ],
        [
            "董事",
            "應明皓"
        ],
        [
            "董事",
            "王昭明"
        ]
    ],
    "分事務所": [

    ],
    "latitude": "",
    "longitude": ""
}