{
    "url": {
        "data": "http:\/\/cdcb.judicial.gov.tw\/abbs\/wkw\/WHD6K03.jsp?ab=AAAdkxAAHAAAGpVAAJ&bc=103&cd=%AA%6B%B5%6E%A5%4C++++++++++++++&de=000023&ef=SLD&fg=1",
        "staff": "http:\/\/cdcb.judicial.gov.tw\/abbs\/wkw\/WHD6K04.jsp?ab=AAAdkxAAHAAAGpVAAJ&bc=103&cd=%AA%6B%B5%6E%A5%4C++++++++++++++&de=000023&ef=SLD&fg=1",
        "office": "http:\/\/cdcb.judicial.gov.tw\/abbs\/wkw\/WHD6K07.jsp?ab=AAAdkxAAHAAAGpVAAJ&bc=103&cd=%AA%6B%B5%6E%A5%4C++++++++++++++&de=000023&ef=SLD&fg=1"
    },
    "登記案號": "103年法登他字23號",
    "類別": "財團",
    "案由": "變更登記",
    "主任": "陳美月",
    "登記號數": "612",
    "收件日期": "103\/01\/27",
    "登記日期": "103\/02\/05",
    "公告日期": "103\/02\/10",
    "登記簿": "31冊13頁",
    "任期判定": "1",
    "屆期判定": "4",
    "法人代表": "李登輝",
    "法人名稱": "財團法人李登輝基金會",
    "設立登記日期": "091\/05\/22",
    "主事務所": "新北市淡水區中正東路2段27之2號30樓",
    "目的": "以引領民主自由、落實台灣優先、促進政治穩定、提振經濟發展、維護國家主權為宗旨。",
    "捐助方法": "設立基金共新台幣三千萬元整，由林誠一先生、黃安捷先生、東鼎液化瓦斯興業股份有限公司、中華開發工業銀行公司、及李登輝先生共同捐助，俟完成法人登記後，得繼續接受捐贈",
    "許可機關日期": "內政部91年5月16日台內民字第0910065994號函",
    "存立時期": "永久",
    "財產總額": "30000000",
    "結案原因": "准許",
    "結案日期": "103\/02\/05",
    "歸檔日期": "",
    "發證日期": "",
    "送達代收人姓名": "",
    "送達代收人住址": "",
    "郵遞區號": "",
    "清算人": "",
    "註銷日期": "",
    "撤銷日期": "",
    "撤(註)銷機關文號": "",
    "撤(註)銷原因": "",
    "董監事": [
        [
            "董事長",
            "李登輝"
        ],
        [
            "董事",
            "黃石城"
        ],
        [
            "副董事長",
            "劉泰英"
        ],
        [
            "副董事長",
            "黃昆輝"
        ],
        [
            "董事",
            "黃振福"
        ],
        [
            "董事",
            "吳東昇"
        ],
        [
            "董事",
            "陳天貴"
        ],
        [
            "董事",
            "麥勝剛"
        ],
        [
            "董事",
            "黃輝珍"
        ],
        [
            "董事",
            "陳永興"
        ],
        [
            "副董事長",
            "李安妮"
        ],
        [
            "董事",
            "蘇天財"
        ],
        [
            "董事",
            "程振隆"
        ],
        [
            "董事",
            "李坤儀"
        ],
        [
            "董事",
            "曾黃麗明"
        ],
        [
            "董事",
            "張炎憲"
        ],
        [
            "董事",
            "王燕軍"
        ]
    ],
    "分事務所": [

    ],
    "latitude": "",
    "longitude": ""
}