{
    "url": {
        "data": "http:\/\/cdcb.judicial.gov.tw\/abbs\/wkw\/WHD6K03.jsp?ab=AAAdkxAAHAAAE9lAAA&bc=093&cd=%AA%6B%B5%6E%A5%4C++++++++++++++&de=000050&ef=SLD&fg=1",
        "staff": "http:\/\/cdcb.judicial.gov.tw\/abbs\/wkw\/WHD6K04.jsp?ab=AAAdkxAAHAAAE9lAAA&bc=093&cd=%AA%6B%B5%6E%A5%4C++++++++++++++&de=000050&ef=SLD&fg=1",
        "office": "http:\/\/cdcb.judicial.gov.tw\/abbs\/wkw\/WHD6K07.jsp?ab=AAAdkxAAHAAAE9lAAA&bc=093&cd=%AA%6B%B5%6E%A5%4C++++++++++++++&de=000050&ef=SLD&fg=1"
    },
    "登記案號": "093年法登他字50號",
    "類別": "財團",
    "案由": "變更登記",
    "主任": "簡福助",
    "登記號數": "183",
    "收件日期": "093\/02\/24",
    "登記日期": "093\/02\/25",
    "公告日期": "093\/02\/26",
    "登記簿": "9冊25頁",
    "任期判定": "2",
    "屆期判定": "4",
    "法人代表": "李石柱",
    "法人名稱": "財團法人台北市志松社會福利事業基金會",
    "設立登記日期": "083\/01\/22",
    "主事務所": "台北市士林區忠誠路二段十四號十三樓",
    "目的": "以辦理貧病及殘障兒童濟助暨協助家境清寒但資賦優異學子完成教育為目的",
    "捐助方法": "由李石柱先生家族及台灣三洋電機股份有限公司等捐助成立。",
    "許可機關日期": "台北市政府社會局82.10.16北市社二字第四五六九０號函",
    "存立時期": "永久",
    "財產總額": "40000032",
    "結案原因": "准許",
    "結案日期": "093\/02\/25",
    "歸檔日期": "094\/04\/08",
    "發證日期": "093\/03\/03",
    "送達代收人姓名": "",
    "送達代收人住址": "",
    "郵遞區號": "",
    "清算人": "",
    "註銷日期": "",
    "撤銷日期": "",
    "撤(註)銷機關文號": "",
    "撤(註)銷原因": "",
    "董監事": [
        [
            "董事長",
            "李石柱"
        ],
        [
            "董事",
            "李文峰"
        ],
        [
            "董事",
            "李文琳"
        ],
        [
            "董事",
            "葉武章"
        ],
        [
            "董事",
            "吳軍佐"
        ],
        [
            "董事",
            "紀安郎"
        ],
        [
            "董事",
            "吳國鍵"
        ],
        [
            "董事",
            "黃道亨"
        ],
        [
            "董事",
            "李友建"
        ]
    ],
    "分事務所": [

    ],
    "latitude": "",
    "longitude": ""
}