{
    "url": {
        "data": "http:\/\/cdcb.judicial.gov.tw\/abbs\/wkw\/WHD6K03.jsp?ab=AAAdkxAAHAAAGlpAAJ&bc=102&cd=%AA%6B%B5%6E%A5%4C++++++++++++++&de=000597&ef=TPD&fg=2",
        "staff": "http:\/\/cdcb.judicial.gov.tw\/abbs\/wkw\/WHD6K04.jsp?ab=AAAdkxAAHAAAGlpAAJ&bc=102&cd=%AA%6B%B5%6E%A5%4C++++++++++++++&de=000597&ef=TPD&fg=2",
        "office": "http:\/\/cdcb.judicial.gov.tw\/abbs\/wkw\/WHD6K07.jsp?ab=AAAdkxAAHAAAGlpAAJ&bc=102&cd=%AA%6B%B5%6E%A5%4C++++++++++++++&de=000597&ef=TPD&fg=2"
    },
    "登記案號": "102年法登他字597號",
    "類別": "社團",
    "案由": "變更登記",
    "主任": "楊志純",
    "登記號數": "920",
    "收件日期": "102\/05\/28",
    "登記日期": "102\/05\/29",
    "公告日期": "102\/05\/29",
    "登記簿": "36冊41頁",
    "任期判定": "2",
    "屆期判定": "",
    "法人代表": "林維宏",
    "法人名稱": "社團法人中華民國扶輪米山會",
    "設立登記日期": "091\/12\/13",
    "主事務所": "台北市松山區東興路65號10樓",
    "目的": "以赴日所學回饋社會，扮演中日兩國民間交流角色。著重文化議題之推廣。",
    "捐助方法": "入會費、常年會費、事業費、會員捐款、委託收益、基金及孳息、其他收入",
    "許可機關日期": "內政部中華民國八十七年四月二十九日台內社字第八七一四一八八號函",
    "存立時期": "永久",
    "財產總額": "300000",
    "結案原因": "准許",
    "結案日期": "102\/05\/29",
    "歸檔日期": "",
    "發證日期": "102\/06\/06",
    "送達代收人姓名": "",
    "送達代收人住址": "",
    "郵遞區號": "",
    "清算人": "",
    "註銷日期": "",
    "撤銷日期": "",
    "撤(註)銷機關文號": "",
    "撤(註)銷原因": "",
    "董監事": [
        [
            "理事",
            "陳姿秀"
        ],
        [
            "常務理事",
            "王秉棟"
        ],
        [
            "理事",
            "許筱玲"
        ],
        [
            "常務理事",
            "蘇定東"
        ],
        [
            "理事",
            "郭錦堂"
        ],
        [
            "常務理事",
            "吳憲璋"
        ],
        [
            "理事長",
            "林維宏"
        ],
        [
            "理事",
            "阮偉倫"
        ],
        [
            "理事",
            "黃元碩"
        ],
        [
            "理事",
            "林華明"
        ],
        [
            "理事",
            "林志昇"
        ],
        [
            "常務理事",
            "黃光輝"
        ],
        [
            "監事",
            "張賴妙珊"
        ],
        [
            "理事",
            "林倩如"
        ],
        [
            "理事",
            "歐元韻"
        ],
        [
            "理事",
            "許海龍"
        ],
        [
            "監事",
            "戴宏昌"
        ],
        [
            "監事",
            "陳美娜"
        ],
        [
            "常務監事",
            "黃世欽"
        ],
        [
            "監事",
            "呂佩玲"
        ],
        [
            "理事",
            "徐希農"
        ],
        [
            "理事",
            "林岳毅"
        ]
    ],
    "分事務所": [

    ],
    "latitude": "",
    "longitude": ""
}