{
    "url": {
        "data": "http:\/\/cdcb.judicial.gov.tw\/abbs\/wkw\/WHD6K03.jsp?ab=AAAdkxAAHAAABbLAAI&bc=094&cd=%AA%6B%B5%6E%A5%4C++++++++++++++&de=000522&ef=TPD&fg=1",
        "staff": "http:\/\/cdcb.judicial.gov.tw\/abbs\/wkw\/WHD6K04.jsp?ab=AAAdkxAAHAAABbLAAI&bc=094&cd=%AA%6B%B5%6E%A5%4C++++++++++++++&de=000522&ef=TPD&fg=1",
        "office": "http:\/\/cdcb.judicial.gov.tw\/abbs\/wkw\/WHD6K07.jsp?ab=AAAdkxAAHAAABbLAAI&bc=094&cd=%AA%6B%B5%6E%A5%4C++++++++++++++&de=000522&ef=TPD&fg=1"
    },
    "登記案號": "094年法登他字522號",
    "類別": "財團",
    "案由": "變更登記",
    "主任": "陳茂哲",
    "登記號數": "121",
    "收件日期": "094\/06\/09",
    "登記日期": "094\/06\/09",
    "公告日期": "094\/06\/09",
    "登記簿": "9冊7頁",
    "任期判定": "1",
    "屆期判定": "11",
    "法人代表": "王顯庭",
    "法人名稱": "財團法人臺灣省台北縣私立莊敬高級工業家事職業學校",
    "設立登記日期": "049\/11\/20",
    "主事務所": "台北縣新店市民生路45號",
    "目的": "為遵照國家教育政策及現行教育法令之規定，辦理私立莊敬高級工業家事職業學校，並謀其健全發展。",
    "捐助方法": "創辦人由韓克溫及董事王顯庭、郭原勳等捐贈",
    "許可機關日期": "台灣省教育廳四十八年八月卅一日　教二字第０三０八六號函",
    "存立時期": "永久",
    "財產總額": "458258935",
    "結案原因": "准許",
    "結案日期": "094\/06\/09",
    "歸檔日期": "095\/08\/18",
    "發證日期": "094\/06\/17",
    "送達代收人姓名": "",
    "送達代收人住址": "",
    "郵遞區號": "",
    "清算人": "",
    "註銷日期": "",
    "撤銷日期": "",
    "撤(註)銷機關文號": "",
    "撤(註)銷原因": "",
    "董監事": [
        [
            "董事長",
            "王顯庭"
        ],
        [
            "董事",
            "郭原勳"
        ],
        [
            "董事",
            "劉鍾翰"
        ],
        [
            "董事",
            "郭宗淓"
        ],
        [
            "董事",
            "史鍚恩"
        ],
        [
            "董事",
            "苑覺非"
        ],
        [
            "董事",
            "荊鳳崗"
        ],
        [
            "董事",
            "陳宗樑"
        ],
        [
            "董事",
            "湯健明"
        ]
    ],
    "分事務所": [

    ],
    "latitude": "",
    "longitude": ""
}