{
    "url": {
        "data": "http:\/\/cdcb.judicial.gov.tw\/abbs\/wkw\/WHD6K03.jsp?ab=AAAdkxAAHAAAGAyAAD&bc=101&cd=%AA%6B%B5%6E%A5%4C++++++++++++++&de=000021&ef=ILD&fg=1",
        "staff": "http:\/\/cdcb.judicial.gov.tw\/abbs\/wkw\/WHD6K04.jsp?ab=AAAdkxAAHAAAGAyAAD&bc=101&cd=%AA%6B%B5%6E%A5%4C++++++++++++++&de=000021&ef=ILD&fg=1",
        "office": "http:\/\/cdcb.judicial.gov.tw\/abbs\/wkw\/WHD6K07.jsp?ab=AAAdkxAAHAAAGAyAAD&bc=101&cd=%AA%6B%B5%6E%A5%4C++++++++++++++&de=000021&ef=ILD&fg=1"
    },
    "登記案號": "101年法登他字21號",
    "類別": "財團",
    "案由": "變更登記",
    "主任": "簡豐益",
    "登記號數": "211",
    "收件日期": "101\/03\/15",
    "登記日期": "101\/03\/20",
    "公告日期": "101\/03\/27",
    "登記簿": "5冊41頁",
    "任期判定": "2",
    "屆期判定": "4",
    "法人代表": "黃建台",
    "法人名稱": "財團法人宜蘭縣古亭國民小學教育基金會",
    "設立登記日期": "092\/06\/16",
    "主事務所": "宜蘭縣壯圍鄉古亭路81號",
    "目的": "本會以協助宜蘭縣古亭國民小學發展校務，改善教學環境，獎勵教師研究進修，促進學生敦品勵學，提昇教育品質為目的。",
    "捐助方法": "1.籌款人捐助新臺幣1,510,000元整。2.宜蘭縣政府補助新臺幣1,500,000元整。",
    "許可機關日期": "宜蘭縣政府中華民國92年3月24日府教終字第0920033599號函",
    "存立時期": "永久",
    "財產總額": "3010000",
    "結案原因": "准許",
    "結案日期": "101\/03\/20",
    "歸檔日期": "",
    "發證日期": "101\/04\/09",
    "送達代收人姓名": "",
    "送達代收人住址": "",
    "郵遞區號": "",
    "清算人": "",
    "註銷日期": "",
    "撤銷日期": "",
    "撤(註)銷機關文號": "",
    "撤(註)銷原因": "",
    "董監事": [
        [
            "董事長",
            "黃建台"
        ],
        [
            "董事",
            "黃聰明"
        ],
        [
            "董事",
            "簡李英蘭"
        ],
        [
            "董事",
            "賴美雅"
        ],
        [
            "董事",
            "游志斌"
        ],
        [
            "董事",
            "張美霞"
        ],
        [
            "董事",
            "吳俊輝"
        ],
        [
            "董事",
            "游炳登"
        ],
        [
            "董事",
            "蔡錦枝"
        ],
        [
            "董事",
            "李錫銘"
        ],
        [
            "董事",
            "蔡文彬"
        ]
    ],
    "分事務所": [

    ],
    "latitude": "",
    "longitude": ""
}