{
    "url": {
        "data": "http:\/\/cdcb.judicial.gov.tw\/abbs\/wkw\/WHD6K03.jsp?ab=AAAdkxAAHAAAM0sAAB&bc=097&cd=%AA%6B%B5%6E%A5%4C++++++++++++++&de=000123&ef=TND&fg=1",
        "staff": "http:\/\/cdcb.judicial.gov.tw\/abbs\/wkw\/WHD6K04.jsp?ab=AAAdkxAAHAAAM0sAAB&bc=097&cd=%AA%6B%B5%6E%A5%4C++++++++++++++&de=000123&ef=TND&fg=1",
        "office": "http:\/\/cdcb.judicial.gov.tw\/abbs\/wkw\/WHD6K07.jsp?ab=AAAdkxAAHAAAM0sAAB&bc=097&cd=%AA%6B%B5%6E%A5%4C++++++++++++++&de=000123&ef=TND&fg=1"
    },
    "登記案號": "097年法登他字123號",
    "類別": "財團",
    "案由": "變更登記",
    "主任": "李春法",
    "登記號數": "519",
    "收件日期": "097\/07\/29",
    "登記日期": "097\/07\/29",
    "公告日期": "097\/07\/29",
    "登記簿": "36冊1頁",
    "任期判定": "2",
    "屆期判定": "3",
    "法人代表": "黃英美",
    "法人名稱": "財團法人慶雲文化基金會",
    "設立登記日期": "090\/11\/07",
    "主事務所": "台南市東豐路二三三號二樓",
    "目的": "一、參予文化及藝術之推廣。二、舉辦文化及藝術之公益活動。三、拠勵優良學生及優秀人才。四、促進國內外文化藝術交流。五、其他符合本會設立宗旨之相關公益性文化藝術活動。",
    "捐助方法": "由捐助人黃堂慶雲捐出",
    "許可機關日期": "台南市政府九十年十月十七日九十南市文政字第二三三七九０號",
    "存立時期": "永久",
    "財產總額": "6000000",
    "結案原因": "准許",
    "結案日期": "097\/07\/29",
    "歸檔日期": "097\/08\/20",
    "發證日期": "097\/08\/07",
    "送達代收人姓名": "",
    "送達代收人住址": "",
    "郵遞區號": "",
    "清算人": "",
    "註銷日期": "",
    "撤銷日期": "",
    "撤(註)銷機關文號": "",
    "撤(註)銷原因": "",
    "董監事": [
        [
            "董事長",
            "黃英美"
        ],
        [
            "董事",
            "李德河"
        ],
        [
            "董事",
            "李茂山"
        ],
        [
            "董事",
            "張華芳"
        ],
        [
            "董事",
            "黃琬玲"
        ],
        [
            "董事",
            "張祖恩"
        ],
        [
            "董事",
            "陳文得"
        ],
        [
            "董事",
            "黃勝家"
        ],
        [
            "董事",
            "胡坤鳳"
        ]
    ],
    "分事務所": [

    ],
    "latitude": "",
    "longitude": ""
}