{
    "url": {
        "data": "http:\/\/cdcb.judicial.gov.tw\/abbs\/wkw\/WHD6K03.jsp?ab=AAAdkxAAHAAAHG7AAH&bc=098&cd=%AA%6B%B5%6E%A5%4C++++++++++++++&de=000091&ef=SLD&fg=1",
        "staff": "http:\/\/cdcb.judicial.gov.tw\/abbs\/wkw\/WHD6K04.jsp?ab=AAAdkxAAHAAAHG7AAH&bc=098&cd=%AA%6B%B5%6E%A5%4C++++++++++++++&de=000091&ef=SLD&fg=1",
        "office": "http:\/\/cdcb.judicial.gov.tw\/abbs\/wkw\/WHD6K07.jsp?ab=AAAdkxAAHAAAHG7AAH&bc=098&cd=%AA%6B%B5%6E%A5%4C++++++++++++++&de=000091&ef=SLD&fg=1"
    },
    "登記案號": "098年法登他字91號",
    "類別": "財團",
    "案由": "變更登記",
    "主任": "陳美月",
    "登記號數": "635",
    "收件日期": "098\/03\/19",
    "登記日期": "098\/03\/19",
    "公告日期": "098\/03\/23",
    "登記簿": "32冊22頁",
    "任期判定": "2",
    "屆期判定": "4",
    "法人代表": "許水德",
    "法人名稱": "財團法人陳重光文教基金會",
    "設立登記日期": "082\/01\/05",
    "主事務所": "台北市大同區承德路2段159號3樓",
    "目的": "舉辦或獎助文教公益，推展婦女成長、兒童福利，發展青少年休閒創意活動，並宏揚中華倫理道德，培育文教人才，並提倡民俗藝術為宗旨。",
    "捐助方法": "由陳重光先生及國泰建股份有限公司等共同捐助",
    "許可機關日期": "台北市政府教育局81年12月23日北市教四字第66688號函",
    "存立時期": "永久",
    "財產總額": "63000000",
    "結案原因": "准許",
    "結案日期": "098\/03\/19",
    "歸檔日期": "098\/08\/21",
    "發證日期": "098\/03\/30",
    "送達代收人姓名": "",
    "送達代收人住址": "",
    "郵遞區號": "",
    "清算人": "",
    "註銷日期": "",
    "撤銷日期": "",
    "撤(註)銷機關文號": "",
    "撤(註)銷原因": "",
    "董監事": [
        [
            "董事長",
            "許水德"
        ],
        [
            "董事",
            "林榮三"
        ],
        [
            "常務董事",
            "黃政旺"
        ],
        [
            "常務董事",
            "張榮發"
        ],
        [
            "常務董事",
            "陳炳甫"
        ],
        [
            "常務董事",
            "林明成"
        ],
        [
            "董事",
            "吳東進"
        ],
        [
            "董事",
            "林謝罕見"
        ],
        [
            "董事",
            "劉文吉"
        ],
        [
            "董事",
            "林鴻熙"
        ],
        [
            "董事",
            "陳國和"
        ],
        [
            "董事",
            "陳敏賢"
        ],
        [
            "常務董事",
            "陳飛鵬"
        ],
        [
            "董事",
            "黃國倫"
        ],
        [
            "常務董事",
            "蘇天財"
        ]
    ],
    "分事務所": [

    ],
    "latitude": "",
    "longitude": ""
}