{
    "url": {
        "data": "http:\/\/cdcb.judicial.gov.tw\/abbs\/wkw\/WHD6K03.jsp?ab=AAAdkxAAHAAANstAAI&bc=097&cd=%AA%6B%B5%6E%A5%4C++++++++++++++&de=000031&ef=PTD&fg=1",
        "staff": "http:\/\/cdcb.judicial.gov.tw\/abbs\/wkw\/WHD6K04.jsp?ab=AAAdkxAAHAAANstAAI&bc=097&cd=%AA%6B%B5%6E%A5%4C++++++++++++++&de=000031&ef=PTD&fg=1",
        "office": "http:\/\/cdcb.judicial.gov.tw\/abbs\/wkw\/WHD6K07.jsp?ab=AAAdkxAAHAAANstAAI&bc=097&cd=%AA%6B%B5%6E%A5%4C++++++++++++++&de=000031&ef=PTD&fg=1"
    },
    "登記案號": "097年法登他字31號",
    "類別": "財團",
    "案由": "變更登記",
    "主任": "徐美麗",
    "登記號數": "138",
    "收件日期": "097\/05\/26",
    "登記日期": "097\/05\/26",
    "公告日期": "097\/05\/26",
    "登記簿": "5冊13頁",
    "任期判定": "1",
    "屆期判定": "5",
    "法人代表": "王金財",
    "法人名稱": "財團法人禮圓文化教育基金會",
    "設立登記日期": "086\/10\/28",
    "主事務所": "屏東縣佳冬鄉石光村大豐路72號",
    "目的": "本會以發揚中華倫理文化及獎助在校學生敦品勵志為宗旨。",
    "捐助方法": "由王金財、林滿妹、賴鳳嬌等捐助。",
    "許可機關日期": "屏東縣政府八十六年十月三日屏府教社字第一六六八一七號",
    "存立時期": "永久",
    "財產總額": "2000000",
    "結案原因": "准許",
    "結案日期": "097\/05\/26",
    "歸檔日期": "097\/06\/17",
    "發證日期": "",
    "送達代收人姓名": "",
    "送達代收人住址": "",
    "郵遞區號": "",
    "清算人": "",
    "註銷日期": "",
    "撤銷日期": "",
    "撤(註)銷機關文號": "",
    "撤(註)銷原因": "",
    "董監事": [
        [
            "董事長",
            "王金財"
        ],
        [
            "董事",
            "葉美英"
        ],
        [
            "董事",
            "鍾石丸"
        ],
        [
            "董事",
            "楊樹庭"
        ],
        [
            "董事",
            "林滿妹"
        ],
        [
            "董事",
            "陳嘉雄"
        ],
        [
            "董事",
            "劉榮貴"
        ],
        [
            "董事",
            "季世森"
        ],
        [
            "董事",
            "張志聲"
        ]
    ],
    "分事務所": [

    ],
    "latitude": "",
    "longitude": ""
}