{
    "url": {
        "data": "http:\/\/cdcb.judicial.gov.tw\/abbs\/wkw\/WHD6K03.jsp?ab=AAAdkxAAHAAAGzOAAB&bc=099&cd=%AA%6B%B5%6E%A5%4C++++++++++++++&de=000122&ef=SLD&fg=1",
        "staff": "http:\/\/cdcb.judicial.gov.tw\/abbs\/wkw\/WHD6K04.jsp?ab=AAAdkxAAHAAAGzOAAB&bc=099&cd=%AA%6B%B5%6E%A5%4C++++++++++++++&de=000122&ef=SLD&fg=1",
        "office": "http:\/\/cdcb.judicial.gov.tw\/abbs\/wkw\/WHD6K07.jsp?ab=AAAdkxAAHAAAGzOAAB&bc=099&cd=%AA%6B%B5%6E%A5%4C++++++++++++++&de=000122&ef=SLD&fg=1"
    },
    "登記案號": "099年法登他字122號",
    "類別": "財團",
    "案由": "變更登記",
    "主任": "陳美月",
    "登記號數": "1058",
    "收件日期": "099\/04\/13",
    "登記日期": "099\/04\/14",
    "公告日期": "099\/04\/16",
    "登記簿": "53冊12頁",
    "任期判定": "1",
    "屆期判定": "1",
    "法人代表": "詹炳發",
    "法人名稱": "財團法人大台北銀行文化基金會",
    "設立登記日期": "097\/10\/22",
    "主事務所": "台北市延平北路2段133號",
    "目的": "以發揚淡水河沿岸文化尋根研究、文化藝術之推廣為宗旨。",
    "捐助方法": "設立基金新台幣壹仟貳佰萬元整，由大台北商業銀行股份有限公司無償捐助。俟完成登記後，得繼續接受捐贈。",
    "許可機關日期": "臺北市政府文化局中華民國97年10月6日北市文化一字第09731582900號函",
    "存立時期": "永久",
    "財產總額": "12000000",
    "結案原因": "准許",
    "結案日期": "099\/04\/14",
    "歸檔日期": "099\/06\/25",
    "發證日期": "099\/04\/23",
    "送達代收人姓名": "",
    "送達代收人住址": "",
    "郵遞區號": "",
    "清算人": "",
    "註銷日期": "",
    "撤銷日期": "",
    "撤(註)銷機關文號": "",
    "撤(註)銷原因": "",
    "董監事": [
        [
            "董事長",
            "詹炳發"
        ],
        [
            "董事",
            "許瑞娟"
        ],
        [
            "董事",
            "李梅齡"
        ],
        [
            "董事",
            "許榮宏"
        ],
        [
            "董事",
            "楊宗來"
        ]
    ],
    "分事務所": [

    ],
    "latitude": "",
    "longitude": ""
}