{
    "url": {
        "data": "http:\/\/cdcb.judicial.gov.tw\/abbs\/wkw\/WHD6K03.jsp?ab=AAAdkxAAHAAAIoNAAH&bc=097&cd=%AA%6B%B5%6E%AA%C0++++++++++++++&de=000012&ef=TYD&fg=1",
        "staff": "http:\/\/cdcb.judicial.gov.tw\/abbs\/wkw\/WHD6K04.jsp?ab=AAAdkxAAHAAAIoNAAH&bc=097&cd=%AA%6B%B5%6E%AA%C0++++++++++++++&de=000012&ef=TYD&fg=1",
        "office": "http:\/\/cdcb.judicial.gov.tw\/abbs\/wkw\/WHD6K07.jsp?ab=AAAdkxAAHAAAIoNAAH&bc=097&cd=%AA%6B%B5%6E%AA%C0++++++++++++++&de=000012&ef=TYD&fg=1"
    },
    "登記案號": "097年法登社字12號",
    "類別": "社團",
    "案由": "設立登記",
    "主任": "林光輝",
    "登記號數": "651",
    "收件日期": "097\/04\/28",
    "登記日期": "097\/04\/28",
    "公告日期": "097\/04\/28",
    "登記簿": "14冊53頁",
    "任期判定": "",
    "屆期判定": "",
    "法人代表": "呂慶世",
    "法人名稱": "社團法人桃園縣敏愛手工藝創業促進協會",
    "設立登記日期": "097\/04\/28",
    "主事務所": "桃園縣楊梅鎮裕成路158巷62號1樓",
    "目的": "為宣揚雙手萬能,以磨練巧妙手工技藝,發揮獨特創意巧思,學習並發展各種手工技藝,設計能提升生活品味與品質之服務或工藝產品,培育符應社會發展趨勢與照顧弱勢族群之第二專長,成為高格調手工技藝之服務提供者,進而增進經營管理相關素養,將彼此專長技能與經驗知識相互交流,特成立本會.",
    "捐助方法": "會費等",
    "許可機關日期": "桃園縣政府中華民國97年4月16日府社發字第0970120050號",
    "存立時期": "永久",
    "財產總額": "84000",
    "結案原因": "准許",
    "結案日期": "097\/04\/29",
    "歸檔日期": "097\/07\/03",
    "發證日期": "097\/05\/20",
    "送達代收人姓名": "",
    "送達代收人住址": "",
    "郵遞區號": "",
    "清算人": "",
    "註銷日期": "",
    "撤銷日期": "",
    "撤(註)銷機關文號": "",
    "撤(註)銷原因": "",
    "董監事": [
        [
            "理事長",
            "呂慶世"
        ],
        [
            "副理事長",
            "鄭麗玲"
        ],
        [
            "常務理事",
            "趙維靜"
        ],
        [
            "理事",
            "卓連對"
        ],
        [
            "理事",
            "謝鳳美"
        ],
        [
            "理事",
            "張雅鈴"
        ],
        [
            "理事",
            "賴亮崇"
        ],
        [
            "理事",
            "陳麗芳"
        ],
        [
            "理事",
            "李悅甄"
        ],
        [
            "常務監事",
            "朱鳳梅"
        ],
        [
            "監事",
            "龍妤瑄"
        ],
        [
            "監事",
            "張月雲"
        ]
    ],
    "分事務所": [

    ],
    "latitude": "",
    "longitude": ""
}