{
    "url": {
        "data": "http:\/\/cdcb.judicial.gov.tw\/abbs\/wkw\/WHD6K03.jsp?ab=AAAdkxAAHAAAE5QAAG&bc=097&cd=%AA%6B%B5%6E%A5%4C++++++++++++++&de=000145&ef=KSD&fg=1",
        "staff": "http:\/\/cdcb.judicial.gov.tw\/abbs\/wkw\/WHD6K04.jsp?ab=AAAdkxAAHAAAE5QAAG&bc=097&cd=%AA%6B%B5%6E%A5%4C++++++++++++++&de=000145&ef=KSD&fg=1",
        "office": "http:\/\/cdcb.judicial.gov.tw\/abbs\/wkw\/WHD6K07.jsp?ab=AAAdkxAAHAAAE5QAAG&bc=097&cd=%AA%6B%B5%6E%A5%4C++++++++++++++&de=000145&ef=KSD&fg=1"
    },
    "登記案號": "097年法登他字145號",
    "類別": "財團",
    "案由": "變更登記",
    "主任": "陳錦鑾",
    "登記號數": "373",
    "收件日期": "097\/06\/20",
    "登記日期": "097\/06\/20",
    "公告日期": "097\/06\/20",
    "登記簿": "7冊145頁",
    "任期判定": "2",
    "屆期判定": "3",
    "法人代表": "董事長",
    "法人名稱": "財團法人八卦寮文教基金會",
    "設立登記日期": "083\/07\/23",
    "主事務所": "高雄縣橋頭鄉白樹村白樹路110號",
    "目的": "以人出發牽動家庭、社會、教育、文化、生態、環境的關係、發展全方位的改造運動為宗旨。",
    "捐助方法": "捐助",
    "許可機關日期": "高雄縣政府83年7月22日83府教社字第115551號",
    "存立時期": "永久",
    "財產總額": "2000000",
    "結案原因": "准許",
    "結案日期": "097\/06\/20",
    "歸檔日期": "097\/09\/09",
    "發證日期": "097\/07\/02",
    "送達代收人姓名": "",
    "送達代收人住址": "",
    "郵遞區號": "",
    "清算人": "",
    "註銷日期": "",
    "撤銷日期": "",
    "撤(註)銷機關文號": "",
    "撤(註)銷原因": "",
    "董監事": [
        [
            "董事長",
            "余政憲"
        ],
        [
            "董事",
            "侯尊堯"
        ],
        [
            "董事",
            "劉蔚萍"
        ],
        [
            "董事",
            "黃志華"
        ],
        [
            "董事",
            "林玉娟"
        ],
        [
            "董事",
            "洪重信"
        ],
        [
            "董事",
            "李武忠"
        ],
        [
            "董事",
            "沈尚宜"
        ],
        [
            "董事",
            "洪平森"
        ],
        [
            "董事",
            "蕭元哲"
        ],
        [
            "董事",
            "吳英偉"
        ]
    ],
    "分事務所": [

    ],
    "latitude": "",
    "longitude": ""
}